count: Core=9967111 Allowed=2335773 Generous=278647 Outside=134242
average: Core=-∞ Allowed=-∞ Generous=-13,7809891250649 Outside=-13,6285760974279
std_deviation_sample: Core=NaN Allowed=NaN Generous=2,13075617311514 Outside=2,21901098040053
0% Percentile: Core=-∞ Allowed=-∞ Generous=-19,106237411499 Outside=-19,1115455627441
10% Percentile: Core=-8,55664443969727 Allowed=-12,099796295166 Generous=-16,6611766815186 Outside=-16,8586656570435
20% Percentile: Core=-7,86413240432739 Allowed=-10,9590320587158 Generous=-15,8254613876343 Outside=-15,9452972412109
30% Percentile: Core=-7,42268085479736 Allowed=-10,2419338226318 Generous=-15,0643243789673 Outside=-14,8325099945068
40% Percentile: Core=-7,0761137008667 Allowed=-9,69913673400879 Generous=-14,3732000350952 Outside=-13,9655235290528
50% Percentile: Core=-6,77243280410767 Allowed=-9,21855545043945 Generous=-13,7531261444092 Outside=-13,3357772827148
60% Percentile: Core=-6,5255880355835 Allowed=-8,79697704315186 Generous=-13,1152544021606 Outside=-12,7503353118896
70% Percentile: Core=-6,20814800262451 Allowed=-8,35551834106445 Generous=-12,4889430999756 Outside=-12,1468000411987
80% Percentile: Core=-5,85759353637695 Allowed=-7,87939786911011 Generous=-11,8132543563843 Outside=-11,5878858566284
90% Percentile: Core=-5,43471336364746 Allowed=-7,24018526077271 Generous=-10,9950723648071 Outside=-10,9292316436768
100% Percentile: Core=-3,7309718132019 Allowed=-4,06156873703003 Generous=-6,73426914215088 Outside=-7,77881717681885
